Temperature_C,Normalized Response,Low Bound,High Bound
2.00000e+1,9.82824e-1,8.91221e-1,1.07443e+0
2.40254e+1,1.12519e+0,1.01641e+0,1.22252e+0
2.80085e+1,1.14160e+0,1.01565e+0,1.26756e+0
3.10169e+1,1.15248e+0,1.04370e+0,1.26126e+0
3.19915e+1,1.19237e+0,1.06068e+0,1.32405e+0
3.50424e+1,1.10018e+0,9.79954e-1,1.22614e+0
3.70339e+1,1.14560e+0,1.00819e+0,1.27155e+0
